Exploratory Data Analysis (EDA) on World Cup 2010 Players
…
library(ggplot2)
library(tidyverse)

#print the data frame
mydata

## # A tibble: 595 x 8
##    Player     Team        Position    Time Shots Passes Tackles Saves
##    <chr>      <chr>       <chr>      <int> <int>  <int>   <int> <int>
##  1 Abdoun     Algeria     Midfielder    16     0      6       0     0
##  2 Abe        Japan       Midfielder   351     0    101      14     0
##  3 Abidal     France      Defender     180     0     91       6     0
##  4 Abou Diaby France      Midfielder   270     1    111       5     0
##  5 Aboubakar  Cameroon    Forward       46     2     16       0     0
##  6 Abreu      Uruguay     Forward       72     0     15       0     0
##  7 Addy       Ghana       Defender     138     0     51       2     0
##  8 Adiyiah    Ghana       Forward       33     0      9       0     0
##  9 Afellay    Netherlands Midfielder    21     5     22       0     0
## 10 Afolabi    Nigeria     Defender     103     0     38       1     0
## # ... with 585 more rows
…
